Hurricane Effects on Stream Chemistry
…
mpr <- read_csv(here::here("data", 
                           "stream-water-pr",
                           "RioMameyesPuenteRoto.csv")) %>% 
  clean_names() 

Methods

1. Clean raw data files

The data cleaning process was as follows: 1. Loading in raw data. 2. Clean names: changing the names from upper case to lower-snake-case. 3. Filter data by only relevant chemicals/nutrients in the study. 4. Combine dataframes into one. 5. Pivot dataset and remove NAs.

read_csv(here("outputs", "bq1_clean.csv")) 

# A tibble: 1,847 × 39
   sample_id      code sample_date sample_time gage_ht  temp   p_h  cond    cl
   <chr>         <dbl> <date>            <dbl>   <dbl> <dbl> <dbl> <dbl> <dbl>
 1 Q1        100012001 1986-05-20           NA      NA    NA  7.35  90.1   8.2
 2 Q1        100012002 1986-05-27           NA      NA    NA  7.48  85.4  NA  
 3 Q1        100012003 1986-06-03           NA      NA    NA  7.36  85.4  NA  
 4 Q1        100012004 1986-10-21         1302      NA    24  7.39  88.5   8.7
 5 Q1        100012005 1986-10-28         1124      NA    23  7.34  91.4   8.5
 6 Q1        100012006 1986-11-04         1150      NA    23  7.45  87.7   8.5
 7 Q1        100012007 1986-11-10         1030      NA    22  7.36  74.8   7.8
 8 Q1        100012008 1986-11-18          859      NA    22  7.36  83     8.5
 9 Q1        100012009 1986-11-25          840      NA    22  7.15  43.9   6.4
10 Q1        100012010 1986-12-02          925      NA    22  7.25  80.5   8.4
# ℹ 1,837 more rows
# ℹ 30 more variables: no3_n <dbl>, so4_s <dbl>, na <dbl>, k <dbl>, mg <dbl>,
#   ca <dbl>, nh4_n <dbl>, po4_p <dbl>, doc <dbl>, dic <dbl>, tdn <dbl>,
#   tdp <lgl>, si_o2 <dbl>, don <dbl>, chloride_code <lgl>, nitrate_code <chr>,
#   sulfate_code <chr>, sodium_code <lgl>, potassium_code <lgl>,
#   magnesium_code <lgl>, calcium_code <lgl>, nh4code <chr>, po4code <chr>,
#   doc_code <chr>, dic_code <lgl>, tdn_code <chr>, si_o2code <lgl>, …

read_csv(here("outputs", "bq2_clean.csv"))

# A tibble: 1,838 × 39
   sample_id      code sample_date sample_time gage_ht  temp   p_h  cond    cl
   <chr>         <dbl> <date>            <dbl>   <dbl> <dbl> <dbl> <dbl> <dbl>
 1 Q2        100013001 1986-05-20           NA      NA  NA    7.52  90.2   7.3
 2 Q2        100013002 1986-05-27           NA      NA  NA    7.59  84.4  NA  
 3 Q2        100013003 1986-06-03           NA      NA  NA    7.55  83.3  NA  
 4 Q2        100013004 1986-10-21         1310      NA  24    7.42  84.8   7.3
 5 Q2        100013005 1986-10-28         1136      NA  23    7.39  85     7.3
 6 Q2        100013006 1986-11-04         1100      NA  22.5  7.43  84.2   7.3
 7 Q2        100013007 1986-11-10         1023      NA  23    7.35  73.8   6.9
 8 Q2        100013008 1986-11-18          851      NA  22    7.51  80.8   7  
 9 Q2        100013009 1986-11-25          845      NA  22    7.19  50.3   6.2
10 Q2        100013010 1986-12-02          933      NA  22    7.41  84.4   7  
# ℹ 1,828 more rows
# ℹ 30 more variables: no3_n <dbl>, so4_s <dbl>, na <dbl>, k <dbl>, mg <dbl>,
#   ca <dbl>, nh4_n <dbl>, po4_p <dbl>, doc <dbl>, dic <dbl>, tdn <dbl>,
#   tdp <lgl>, si_o2 <dbl>, don <dbl>, chloride_code <lgl>, nitrate_code <chr>,
#   sulfate_code <chr>, sodium_code <lgl>, potassium_code <chr>,
#   magnesium_code <lgl>, calcium_code <lgl>, nh4code <chr>, po4code <chr>,
#   doc_code <chr>, dic_code <lgl>, tdn_code <chr>, si_o2code <lgl>, …

read_csv(here("outputs", "bq3_clean.csv"))

# A tibble: 1,835 × 39
   sample_id      code sample_date sample_time gage_ht  temp   p_h  cond    cl
   <chr>         <dbl> <date>            <dbl>   <dbl> <dbl> <dbl> <dbl> <dbl>
 1 Q3        100014001 1986-05-20           NA      NA  NA    7.44  85.1   8.3
 2 Q3        100014002 1986-05-27           NA      NA  NA    7.53  81.1  NA  
 3 Q3        100014003 1986-06-03           NA      NA  NA    7.49  80.3  NA  
 4 Q3        100014004 1986-10-21         1250      NA  23.5  7.11  78.5   6.9
 5 Q3        100014005 1986-10-28         1145      NA  23    7.42  80.3   7.9
 6 Q3        100014006 1986-11-04         1050      NA  23    7.46  79.4   8.2
 7 Q3        100014007 1986-11-10         1013      NA  22    7.11  60.9   7.1
 8 Q3        100014008 1986-11-18          840      NA  22    7.56  74     8.1
 9 Q3        100014009 1986-11-25          852      NA  21.5  7.27  50.3   6.9
10 Q3        100014010 1986-12-02          937      NA  22    7.49  70.6   7.4
# ℹ 1,825 more rows
# ℹ 30 more variables: no3_n <dbl>, so4_s <dbl>, na <dbl>, k <dbl>, mg <dbl>,
#   ca <dbl>, nh4_n <dbl>, po4_p <dbl>, doc <dbl>, dic <dbl>, tdn <dbl>,
#   tdp <lgl>, si_o2 <dbl>, don <dbl>, chloride_code <lgl>, nitrate_code <chr>,
#   sulfate_code <chr>, sodium_code <lgl>, potassium_code <lgl>,
#   magnesium_code <lgl>, calcium_code <lgl>, nh4code <chr>, po4code <chr>,
#   doc_code <chr>, dic_code <lgl>, tdn_code <chr>, si_o2code <chr>, …

read_csv(here("outputs", "mpr_clean.csv"))

# A tibble: 1,657 × 39
   sample_id  code sample_date sample_time gage_ht  temp   p_h  cond    cl no3_n
   <chr>     <dbl> <date>            <dbl>   <dbl> <dbl> <dbl> <dbl> <dbl> <dbl>
 1 MPR        1526 1989-05-16          933    1.78    NA  7.08 108      NA    69
 2 MPR        1539 1989-05-23         1005    1.9     NA  7.45  92.8    NA    69
 3 MPR        1570 1989-05-30         1034    2.76    NA  7.19  68.6    NA    79
 4 MPR        1582 1989-06-06         1110    2.42    NA  7.54  72.6    NA    85
 5 MPR        1599 1989-06-13         1000    2.13    NA  7.34  85      NA    70
 6 MPR        1657 1989-06-20         1010    2.18    NA  7.67  81.3    NA    71
 7 MPR        1687 1989-06-27          957    1.83    NA  7.47  84.7    NA    NA
 8 MPR        1697 1989-07-05           NA   NA       NA  6.94  39.2    NA    10
 9 MPR        1986 1989-07-11         1032    1.64    NA  7.33  76.3    NA    24
10 MPR        2063 1989-07-26           NA   NA       NA  7.17  69.5    NA    10
# ℹ 1,647 more rows
# ℹ 29 more variables: so4_s <dbl>, na <dbl>, k <dbl>, mg <dbl>, ca <dbl>,
#   nh4_n <dbl>, po4_p <dbl>, doc <dbl>, dic <dbl>, tdn <dbl>, tdp <lgl>,
#   si_o2 <dbl>, don <dbl>, chloride_code <lgl>, nitrate_code <chr>,
#   sulfate_code <chr>, sodium_code <lgl>, potassium_code <lgl>,
#   magnesium_code <lgl>, calcium_code <lgl>, nh4code <chr>, po4code <chr>,
#   doc_code <lgl>, dic_code <lgl>, tdn_code <chr>, si_o2code <chr>, …
…
